﻿{
  "GameModeType": "PvP",
  "CastleDamageMode": "TimeRestricted",
  "CastleHeartDamageMode": "CanBeDestroyedOnlyWhenDecaying",
  "DeathContainerPermission": "Anyone",
  "RelicSpawnType": "Unique",
  "BloodBoundEquipment": true,
  "PlayerDamageMode": "Always",
  "PvPProtectionMode": "Short",
  "BloodDrainModifier": 1.25,

  // Not decided yet disabled
  //"DropTableModifier_General": 1.5,
  //"DropTableModifier_Missions": 1.5,
  //"MaterialYieldModifier_Global": 1.5,
  //"BloodEssenceYieldModifier": 1.5,
  "StarterEquipmentId": -376135143,
  "StarterResourcesId": 329280709,
  "VBloodUnitSettings": [
    {
      "UnitId": -1905691330,
      "DefaultUnlocked": true
    },
    {
      "UnitId": 1124739990,
      "DefaultUnlocked": true
    },
    {
      "UnitId": 2122229952,
      "DefaultUnlocked": true
    },
    {
      "UnitId": -2025101517,
      "DefaultUnlocked": true
    },
    {
      "UnitId": 763273073,
      "DefaultUnlocked": true
    },
    {
      "UnitId": 1106149033,
      "DefaultUnlocked": true
    },
    {
      "UnitId": 577478542,
      "DefaultUnlocked": true
    },
    {
      "UnitId": -2039908510,
      "DefaultUnlocked": true
    },
    {
      "UnitId": 1896428751,
      "DefaultUnlocked": true
    },
    {
      "UnitId": -484556888,
      "DefaultUnlocked": true
    },
    {
      "UnitId": -1391546313,
      "DefaultUnlocked": true
    },
    {
      "UnitId": 153390636,
      "DefaultUnlocked": true
    },
    {
      "UnitId": -1659822956,
      "DefaultUnlocked": true
    },
    {
      "UnitId": -484556888,
      "DefaultUnlocked": true
    },
    {
      "UnitId": -1391546313,
      "DefaultUnlocked": true
    },
    {
      "UnitId": 153390636,
      "DefaultUnlocked": true
    },
    {
      "UnitId": -1659822956,
      "DefaultUnlocked": true
    }
  ],
  "UnlockedAchievements": [
    -1770927128,
    436375429,
    -1400391027,
    -2071097880,
    1695239324,
    1502386974,
    1694767961,
    -1899098914,
    560247139,
    134993992,
    -1995132640,
    -1434604634,
    1668809517,
    334973636,
    606418711,
    -892747762,
    -437605270
  ],
  "UnlockedResearchs": [
    -495424062
  ],

  "CastleStatModifiers_Global": {
    "CastleLimit": 1
  }
}