

[2023-07-11 22:32:38] Connectivity test: Starting test, fetching 'http://test.steampowered.com/204'
[2023-07-11 22:32:38] Connectivity test: OK!
[2023-07-11 22:32:38] Connectivity test: result=Connected (since 0.0s ago), prev=Unknown, in progress=0


[2023-07-11 22:36:02] Connectivity test: Starting test, fetching 'http://test.steampowered.com/204'
[2023-07-11 22:36:02] Connectivity test: OK!
[2023-07-11 22:36:02] Connectivity test: result=Connected (since 0.0s ago), prev=Unknown, in progress=0


[2023-07-11 22:42:39] Connectivity test: Starting test, fetching 'http://test.steampowered.com/204'
[2023-07-11 22:42:39] Connectivity test: OK!
[2023-07-11 22:42:39] Connectivity test: result=Connected (since 0.0s ago), prev=Unknown, in progress=0


[2023-07-11 22:51:56] Connectivity test: Starting test, fetching 'http://test.steampowered.com/204'
[2023-07-11 22:51:56] Connectivity test: OK!
[2023-07-11 22:51:56] Connectivity test: result=Connected (since 0.0s ago), prev=Unknown, in progress=0


[2023-07-11 22:56:20] Connectivity test: Starting test, fetching 'http://test.steampowered.com/204'
[2023-07-11 22:56:20] Connectivity test: OK!
[2023-07-11 22:56:20] Connectivity test: result=Connected (since 0.0s ago), prev=Unknown, in progress=0


[2023-07-11 22:56:30] Connectivity test: Starting test, fetching 'http://test.steampowered.com/204'
[2023-07-11 22:56:30] Connectivity test: OK!
[2023-07-11 22:56:30] Connectivity test: result=Connected (since 0.0s ago), prev=Unknown, in progress=0


[2023-07-11 23:03:44] Connectivity test: Starting test, fetching 'http://test.steampowered.com/204'
[2023-07-11 23:03:44] Connectivity test: OK!
[2023-07-11 23:03:44] Connectivity test: result=Connected (since 0.0s ago), prev=Unknown, in progress=0


[2023-07-11 23:04:03] Connectivity test: Starting test, fetching 'http://test.steampowered.com/204'
[2023-07-11 23:04:03] Connectivity test: OK!
[2023-07-11 23:04:03] Connectivity test: result=Connected (since 0.0s ago), prev=Unknown, in progress=0


[2023-07-11 23:05:14] Connectivity test: Starting test, fetching 'http://test.steampowered.com/204'
[2023-07-11 23:05:15] Connectivity test: OK!
[2023-07-11 23:05:15] Connectivity test: result=Connected (since 0.0s ago), prev=Unknown, in progress=0


[2023-07-11 23:06:04] Connectivity test: Starting test, fetching 'http://test.steampowered.com/204'
[2023-07-11 23:06:04] Connectivity test: OK!
[2023-07-11 23:06:04] Connectivity test: result=Connected (since 0.0s ago), prev=Unknown, in progress=0


[2023-07-11 23:06:25] Connectivity test: Starting test, fetching 'http://test.steampowered.com/204'
[2023-07-11 23:06:25] Connectivity test: OK!
[2023-07-11 23:06:25] Connectivity test: result=Connected (since 0.0s ago), prev=Unknown, in progress=0


[2023-07-11 23:07:34] Connectivity test: Starting test, fetching 'http://test.steampowered.com/204'
[2023-07-11 23:07:34] Connectivity test: OK!
[2023-07-11 23:07:34] Connectivity test: result=Connected (since 0.0s ago), prev=Unknown, in progress=0


[2023-07-11 23:15:04] Connectivity test: Starting test, fetching 'http://test.steampowered.com/204'
[2023-07-11 23:15:04] Connectivity test: OK!
[2023-07-11 23:15:04] Connectivity test: result=Connected (since 0.0s ago), prev=Unknown, in progress=0
[2023-07-12 03:01:35] Connectivity test: Starting test, fetching 'http://test.steampowered.com/204'
[2023-07-12 03:01:35] Connectivity test: OK!
[2023-07-12 03:01:35] Connectivity test: result=Connected (since 13590.4s ago), prev=Unknown, in progress=0
[2023-07-12 03:02:00] Connectivity test: Starting test, fetching 'http://test.steampowered.com/204'
[2023-07-12 03:02:00] Connectivity test: OK!
[2023-07-12 03:02:00] Connectivity test: result=Connected (since 13615.9s ago), prev=Unknown, in progress=0
[2023-07-12 03:02:31] Connectivity test: Starting test, fetching 'http://test.steampowered.com/204'
[2023-07-12 03:02:31] Connectivity test: OK!
[2023-07-12 03:02:31] Connectivity test: result=Connected (since 13647.0s ago), prev=Unknown, in progress=0


[2023-07-12 23:39:17] Connectivity test: Starting test, fetching 'http://test.steampowered.com/204'
[2023-07-12 23:39:17] Connectivity test: OK!
[2023-07-12 23:39:17] Connectivity test: result=Connected (since 0.0s ago), prev=Unknown, in progress=0
[2023-07-13 01:01:42] Connectivity test: Starting test, fetching 'http://test.steampowered.com/204'
[2023-07-13 01:01:42] Connectivity test: HTTP fetch failed
[2023-07-13 01:01:42] Connectivity test: result=Failed (since 0.0s ago), prev=Connected, in progress=0
[2023-07-13 01:01:49] Connectivity test: Starting test, fetching 'http://test.steampowered.com/204'
[2023-07-13 01:01:49] Connectivity test: OK!
[2023-07-13 01:01:49] Connectivity test: result=Connected (since 0.0s ago), prev=Failed, in progress=0


[2023-07-13 18:35:20] Connectivity test: Starting test, fetching 'http://test.steampowered.com/204'
[2023-07-13 18:35:20] Connectivity test: OK!
[2023-07-13 18:35:20] Connectivity test: result=Connected (since 0.0s ago), prev=Unknown, in progress=0


[2023-07-13 18:38:52] Connectivity test: Starting test, fetching 'http://test.steampowered.com/204'
[2023-07-13 18:38:53] Connectivity test: OK!
[2023-07-13 18:38:53] Connectivity test: result=Connected (since 0.0s ago), prev=Unknown, in progress=0
[2023-07-13 19:12:20] Connectivity test: Starting test, fetching 'http://test.steampowered.com/204'
[2023-07-13 19:12:20] Connectivity test: OK!
[2023-07-13 19:12:20] Connectivity test: result=Connected (since 2007.3s ago), prev=Unknown, in progress=0
[2023-07-13 19:12:36] Connectivity test: Starting test, fetching 'http://test.steampowered.com/204'
[2023-07-13 19:12:36] Connectivity test: OK!
[2023-07-13 19:12:36] Connectivity test: result=Connected (since 2023.7s ago), prev=Unknown, in progress=0
[2023-07-13 19:12:43] Connectivity test: Starting test, fetching 'http://test.steampowered.com/204'
[2023-07-13 19:12:43] Connectivity test: OK!
[2023-07-13 19:12:43] Connectivity test: result=Connected (since 2030.9s ago), prev=Unknown, in progress=0
[2023-07-13 19:13:00] Connectivity test: Starting test, fetching 'http://test.steampowered.com/204'
[2023-07-13 19:13:01] Connectivity test: OK!
[2023-07-13 19:13:01] Connectivity test: result=Connected (since 2048.0s ago), prev=Unknown, in progress=0
[2023-07-13 19:13:18] Connectivity test: Starting test, fetching 'http://test.steampowered.com/204'
[2023-07-13 19:13:18] Connectivity test: OK!
[2023-07-13 19:13:18] Connectivity test: result=Connected (since 2065.0s ago), prev=Unknown, in progress=0
[2023-07-13 19:13:31] Connectivity test: Starting test, fetching 'http://test.steampowered.com/204'
[2023-07-13 19:13:31] Connectivity test: OK!
[2023-07-13 19:13:31] Connectivity test: result=Connected (since 2078.5s ago), prev=Unknown, in progress=0
[2023-07-13 19:14:12] Connectivity test: Starting test, fetching 'http://test.steampowered.com/204'
[2023-07-13 19:14:12] Connectivity test: OK!
[2023-07-13 19:14:12] Connectivity test: result=Connected (since 2119.1s ago), prev=Unknown, in progress=0
[2023-07-13 19:14:27] Connectivity test: Starting test, fetching 'http://test.steampowered.com/204'
[2023-07-13 19:14:27] Connectivity test: OK!
[2023-07-13 19:14:27] Connectivity test: result=Connected (since 2134.7s ago), prev=Unknown, in progress=0
[2023-07-13 19:15:12] Connectivity test: Starting test, fetching 'http://test.steampowered.com/204'
[2023-07-13 19:15:12] Connectivity test: OK!
[2023-07-13 19:15:12] Connectivity test: result=Connected (since 2179.3s ago), prev=Unknown, in progress=0
[2023-07-13 19:15:59] Connectivity test: Starting test, fetching 'http://test.steampowered.com/204'
[2023-07-13 19:15:59] Connectivity test: OK!
[2023-07-13 19:15:59] Connectivity test: result=Connected (since 2226.6s ago), prev=Unknown, in progress=0


[2023-07-13 22:04:40] Connectivity test: Starting test, fetching 'http://test.steampowered.com/204'
[2023-07-13 22:04:40] Connectivity test: OK!
[2023-07-13 22:04:40] Connectivity test: result=Connected (since 0.0s ago), prev=Unknown, in progress=0
[2023-07-13 22:09:12] Connectivity test: Starting test, fetching 'http://test.steampowered.com/204'
[2023-07-13 22:09:12] Connectivity test: HTTP fetch failed
[2023-07-13 22:09:12] Connectivity test: result=Failed (since 0.0s ago), prev=Connected, in progress=0
[2023-07-13 22:09:19] Connectivity test: Starting test, fetching 'http://test.steampowered.com/204'
[2023-07-13 22:09:19] Connectivity test: OK!
[2023-07-13 22:09:19] Connectivity test: result=Connected (since 0.0s ago), prev=Failed, in progress=0
[2023-07-14 00:12:48] Connectivity test: Starting test, fetching 'http://test.steampowered.com/204'
[2023-07-14 00:12:48] Connectivity test: HTTP fetch failed
[2023-07-14 00:12:48] Connectivity test: result=Failed (since 0.0s ago), prev=Connected, in progress=0
[2023-07-14 00:12:54] Connectivity test: Starting test, fetching 'http://test.steampowered.com/204'
[2023-07-14 00:12:54] Connectivity test: OK!
[2023-07-14 00:12:54] Connectivity test: result=Connected (since 0.0s ago), prev=Failed, in progress=0


[2023-07-14 23:59:12] Connectivity test: Starting test, fetching 'http://test.steampowered.com/204'
[2023-07-14 23:59:13] Connectivity test: OK!
[2023-07-14 23:59:13] Connectivity test: result=Connected (since 0.0s ago), prev=Unknown, in progress=0


[2023-07-15 17:49:33] Connectivity test: Starting test, fetching 'http://test.steampowered.com/204'
[2023-07-15 17:49:33] Connectivity test: OK!
[2023-07-15 17:49:33] Connectivity test: result=Connected (since 0.0s ago), prev=Unknown, in progress=0


[2023-07-19 21:35:14] Connectivity test: Starting test, fetching 'http://test.steampowered.com/204'
[2023-07-19 21:35:14] Connectivity test: OK!
[2023-07-19 21:35:14] Connectivity test: result=Connected (since 0.0s ago), prev=Unknown, in progress=0
[2023-07-19 22:07:28] Connectivity test: Starting test, fetching 'http://test.steampowered.com/204'
[2023-07-19 22:07:28] Connectivity test: OK!
[2023-07-19 22:07:28] Connectivity test: result=Connected (since 1933.7s ago), prev=Unknown, in progress=0
[2023-07-19 22:08:06] Connectivity test: Starting test, fetching 'http://test.steampowered.com/204'
[2023-07-19 22:08:06] Connectivity test: OK!
[2023-07-19 22:08:06] Connectivity test: result=Connected (since 1972.1s ago), prev=Unknown, in progress=0
[2023-07-19 22:08:33] Connectivity test: Starting test, fetching 'http://test.steampowered.com/204'
[2023-07-19 22:08:33] Connectivity test: OK!
[2023-07-19 22:08:33] Connectivity test: result=Connected (since 1999.4s ago), prev=Unknown, in progress=0
[2023-07-19 22:09:50] Connectivity test: Starting test, fetching 'http://test.steampowered.com/204'
[2023-07-19 22:09:50] Connectivity test: OK!
[2023-07-19 22:09:50] Connectivity test: result=Connected (since 2076.1s ago), prev=Unknown, in progress=0
[2023-07-19 22:11:20] Connectivity test: Starting test, fetching 'http://test.steampowered.com/204'
[2023-07-19 22:11:21] Connectivity test: OK!
[2023-07-19 22:11:21] Connectivity test: result=Connected (since 2166.7s ago), prev=Unknown, in progress=0
[2023-07-19 22:14:52] Connectivity test: Starting test, fetching 'http://test.steampowered.com/204'
[2023-07-19 22:14:52] Connectivity test: OK!
[2023-07-19 22:14:52] Connectivity test: result=Connected (since 2378.4s ago), prev=Unknown, in progress=0


[2023-07-21 02:08:42] Connectivity test: Starting test, fetching 'http://test.steampowered.com/204'
[2023-07-21 02:08:42] Connectivity test: OK!
[2023-07-21 02:08:42] Connectivity test: result=Connected (since 0.0s ago), prev=Unknown, in progress=0


[2023-07-21 22:22:58] Connectivity test: Starting test, fetching 'http://test.steampowered.com/204'
[2023-07-21 22:22:58] Connectivity test: OK!
[2023-07-21 22:22:58] Connectivity test: result=Connected (since 0.0s ago), prev=Unknown, in progress=0


[2023-07-23 00:46:53] Connectivity test: Starting test, fetching 'http://test.steampowered.com/204'
[2023-07-23 00:46:53] Connectivity test: OK!
[2023-07-23 00:46:53] Connectivity test: result=Connected (since 0.0s ago), prev=Unknown, in progress=0


[2023-07-24 00:47:53] Connectivity test: Starting test, fetching 'http://test.steampowered.com/204'
[2023-07-24 00:47:53] Connectivity test: OK!
[2023-07-24 00:47:53] Connectivity test: result=Connected (since 0.0s ago), prev=Unknown, in progress=0


[2023-07-24 23:03:46] Connectivity test: Starting test, fetching 'http://test.steampowered.com/204'
[2023-07-24 23:03:46] Connectivity test: OK!
[2023-07-24 23:03:46] Connectivity test: result=Connected (since 0.0s ago), prev=Unknown, in progress=0


[2023-07-25 22:50:29] Connectivity test: Starting test, fetching 'http://test.steampowered.com/204'
[2023-07-25 22:50:29] Connectivity test: OK!
[2023-07-25 22:50:29] Connectivity test: result=Connected (since 0.0s ago), prev=Unknown, in progress=0


[2023-07-25 22:51:50] Connectivity test: Starting test, fetching 'http://test.steampowered.com/204'
[2023-07-25 22:51:50] Connectivity test: OK!
[2023-07-25 22:51:50] Connectivity test: result=Connected (since 0.0s ago), prev=Unknown, in progress=0
[2023-07-26 03:34:04] Connectivity test: Starting test, fetching 'http://test.steampowered.com/204'
[2023-07-26 03:34:05] Connectivity test: OK!
[2023-07-26 03:34:05] Connectivity test: result=Connected (since 16934.4s ago), prev=Unknown, in progress=0
[2023-07-26 03:34:11] Connectivity test: Starting test, fetching 'http://test.steampowered.com/204'
[2023-07-26 03:34:11] Connectivity test: OK!
[2023-07-26 03:34:11] Connectivity test: result=Connected (since 16940.9s ago), prev=Unknown, in progress=0
[2023-07-26 03:57:11] Connectivity test: Starting test, fetching 'http://test.steampowered.com/204'
[2023-07-26 03:57:12] Connectivity test: OK!
[2023-07-26 03:57:12] Connectivity test: result=Connected (since 18321.4s ago), prev=Unknown, in progress=0
[2023-07-26 03:57:36] Connectivity test: Starting test, fetching 'http://test.steampowered.com/204'
[2023-07-26 03:57:36] Connectivity test: OK!
[2023-07-26 03:57:36] Connectivity test: result=Connected (since 18345.7s ago), prev=Unknown, in progress=0


[2023-07-27 01:45:26] Connectivity test: Starting test, fetching 'http://test.steampowered.com/204'
[2023-07-27 01:45:26] Connectivity test: OK!
[2023-07-27 01:45:26] Connectivity test: result=Connected (since 0.0s ago), prev=Unknown, in progress=0


[2023-08-01 01:48:29] Connectivity test: Starting test, fetching 'http://test.steampowered.com/204'
[2023-08-01 01:48:29] Connectivity test: OK!
[2023-08-01 01:48:29] Connectivity test: result=Connected (since 0.0s ago), prev=Unknown, in progress=0


[2023-08-02 01:33:37] Connectivity test: Starting test, fetching 'http://test.steampowered.com/204'
[2023-08-02 01:33:37] Connectivity test: OK!
[2023-08-02 01:33:37] Connectivity test: result=Connected (since 0.0s ago), prev=Unknown, in progress=0


[2023-08-05 00:13:18] Connectivity test: Starting test, fetching 'http://test.steampowered.com/204'
[2023-08-05 00:13:18] Connectivity test: OK!
[2023-08-05 00:13:18] Connectivity test: result=Connected (since 0.0s ago), prev=Unknown, in progress=0


[2023-08-05 23:03:56] Connectivity test: Starting test, fetching 'http://test.steampowered.com/204'
[2023-08-05 23:03:57] Connectivity test: OK!
[2023-08-05 23:03:57] Connectivity test: result=Connected (since 0.0s ago), prev=Unknown, in progress=0


[2023-08-26 00:43:10] Connectivity test: Starting test, fetching 'http://test.steampowered.com/204'
[2023-08-26 00:43:10] Connectivity test: OK!
[2023-08-26 00:43:10] Connectivity test: result=Connected (since 0.0s ago), prev=Unknown, in progress=0


[2023-08-26 16:12:50] Connectivity test: Starting test, fetching 'http://test.steampowered.com/204'
[2023-08-26 16:12:50] Connectivity test: OK!
[2023-08-26 16:12:50] Connectivity test: result=Connected (since 0.0s ago), prev=Unknown, in progress=0


[2023-08-26 20:02:12] Connectivity test: Starting test, fetching 'http://test.steampowered.com/204'
[2023-08-26 20:02:12] Connectivity test: OK!
[2023-08-26 20:02:12] Connectivity test: result=Connected (since 0.0s ago), prev=Unknown, in progress=0


[2023-08-28 22:57:43] Connectivity test: Starting test, fetching 'http://test.steampowered.com/204'
[2023-08-28 22:57:43] Connectivity test: OK!
[2023-08-28 22:57:43] Connectivity test: result=Connected (since 0.0s ago), prev=Unknown, in progress=0


[2023-08-29 23:03:16] Connectivity test: Starting test, fetching 'http://test.steampowered.com/204'
[2023-08-29 23:03:16] Connectivity test: OK!
[2023-08-29 23:03:16] Connectivity test: result=Connected (since 0.0s ago), prev=Unknown, in progress=0


[2023-09-02 00:20:50] Connectivity test: Starting test, fetching 'http://test.steampowered.com/204'
[2023-09-02 00:20:50] Connectivity test: OK!
[2023-09-02 00:20:50] Connectivity test: result=Connected (since 0.0s ago), prev=Unknown, in progress=0


[2023-09-02 00:31:42] Connectivity test: Starting test, fetching 'http://test.steampowered.com/204'
[2023-09-02 00:31:42] Connectivity test: OK!
[2023-09-02 00:31:42] Connectivity test: result=Connected (since 0.0s ago), prev=Unknown, in progress=0


[2023-09-13 00:29:50] Connectivity test: Starting test, fetching 'http://test.steampowered.com/204'
[2023-09-13 00:29:50] Connectivity test: OK!
[2023-09-13 00:29:50] Connectivity test: result=Connected (since 0.0s ago), prev=Unknown, in progress=0


[2023-09-23 00:51:44] Connectivity test: Starting test, fetching 'http://test.steampowered.com/204'
[2023-09-23 00:51:44] Connectivity test: OK!
[2023-09-23 00:51:44] Connectivity test: result=Connected (since 0.0s ago), prev=Unknown, in progress=0


[2023-10-12 22:06:22] Connectivity test: Starting test, fetching 'http://test.steampowered.com/204'
[2023-10-12 22:06:22] Connectivity test: OK!
[2023-10-12 22:06:22] Connectivity test: result=Connected (since 0.0s ago), prev=Unknown, in progress=0
